ss://Y2hhY2hhMjAtaWV0Zi1wb2x5MTMwNTpmZWZjMDQzOC0yZTEwLTQwZTUtYjExNy02NGMzMjYyMGY5MTY@free.2weradf.xyz:36026#%F0%9F%87%B9%F0%9F%87%BC%E5%8F%B0%E6%B9%BE01%20%7C%20%E4%B8%93%E7%BA%BF
ss://Y2hhY2hhMjAtaWV0Zi1wb2x5MTMwNTpmZWZjMDQzOC0yZTEwLTQwZTUtYjExNy02NGMzMjYyMGY5MTY@free.2weradf.xyz:36018#%F0%9F%87%AD%F0%9F%87%B0%E9%A6%99%E6%B8%AF03%20%7C%20%E4%B8%93%E7%BA%BF
ss://Y2hhY2hhMjAtaWV0Zi1wb2x5MTMwNTpmZWZjMDQzOC0yZTEwLTQwZTUtYjExNy02NGMzMjYyMGY5MTY@free.2weradf.xyz:36012#%F0%9F%87%AF%F0%9F%87%B5%E6%97%A5%E6%9C%AC03%20%7C%20%E4%B8%93%E7%BA%BF
ss://Y2hhY2hhMjAtaWV0Zi1wb2x5MTMwNTpmZWZjMDQzOC0yZTEwLTQwZTUtYjExNy02NGMzMjYyMGY5MTY@free.2weradf.xyz:36064#%F0%9F%87%BB%F0%9F%87%B3%E8%B6%8A%E5%8D%9701
ss://Y2hhY2hhMjAtaWV0Zi1wb2x5MTMwNTpmZWZjMDQzOC0yZTEwLTQwZTUtYjExNy02NGMzMjYyMGY5MTY@free.2weradf.xyz:36031#%F0%9F%87%BA%F0%9F%87%B8%E7%BE%8E%E5%9B%BD02%20%7C%20%E4%B8%93%E7%BA%BF
ss://Y2hhY2hhMjAtaWV0Zi1wb2x5MTMwNTpmZWZjMDQzOC0yZTEwLTQwZTUtYjExNy02NGMzMjYyMGY5MTY@free.2weradf.xyz:36028#%F0%9F%87%B9%F0%9F%87%BC%E5%8F%B0%E6%B9%BE03%20%7C%20%E4%B8%93%E7%BA%BF
ss://Y2hhY2hhMjAtaWV0Zi1wb2x5MTMwNTpmZWZjMDQzOC0yZTEwLTQwZTUtYjExNy02NGMzMjYyMGY5MTY@free.2weradf.xyz:36021#%F0%9F%87%B8%F0%9F%87%AC%E6%96%B0%E5%8A%A0%E5%9D%A102%20%7C%20%E4%B8%93%E7%BA%BF
ss://Y2hhY2hhMjAtaWV0Zi1wb2x5MTMwNTpmZWZjMDQzOC0yZTEwLTQwZTUtYjExNy02NGMzMjYyMGY5MTY@free.2weradf.xyz:36016#%E6%B0%B8%E4%B9%85%E4%B8%AD%E6%96%87%E5%9F%9F%E5%90%8D%EF%BC%9A%E8%93%9D%E8%89%B2%E6%B5%B7%E6%B4%8B.xyz
ss://Y2hhY2hhMjAtaWV0Zi1wb2x5MTMwNTpmZWZjMDQzOC0yZTEwLTQwZTUtYjExNy02NGMzMjYyMGY5MTY@free.2weradf.xyz:36017#%F0%9F%87%AD%F0%9F%87%B0%E9%A6%99%E6%B8%AF02%20%7C%20%E4%B8%93%E7%BA%BF
ss://Y2hhY2hhMjAtaWV0Zi1wb2x5MTMwNTpmZWZjMDQzOC0yZTEwLTQwZTUtYjExNy02NGMzMjYyMGY5MTY@free.2weradf.xyz:36044#%F0%9F%87%B5%F0%9F%87%AD%E8%8F%B2%E5%BE%8B%E5%AE%BE01
ss://Y2hhY2hhMjAtaWV0Zi1wb2x5MTMwNTpmZWZjMDQzOC0yZTEwLTQwZTUtYjExNy02NGMzMjYyMGY5MTY@free.2weradf.xyz:36050#%F0%9F%87%A8%F0%9F%87%A6%E5%8A%A0%E6%8B%BF%E5%A4%A701
ss://Y2hhY2hhMjAtaWV0Zi1wb2x5MTMwNTpmZWZjMDQzOC0yZTEwLTQwZTUtYjExNy02NGMzMjYyMGY5MTY@free.2weradf.xyz:36016#%E5%AE%98%E7%BD%91%E5%9C%B0%E5%9D%80%EF%BC%9Aa.allbluess.pro
ss://Y2hhY2hhMjAtaWV0Zi1wb2x5MTMwNTpmZWZjMDQzOC0yZTEwLTQwZTUtYjExNy02NGMzMjYyMGY5MTY@free.2weradf.xyz:36011#%F0%9F%87%AF%F0%9F%87%B5%E6%97%A5%E6%9C%AC02%20%7C%20%E4%B8%93%E7%BA%BF
ss://Y2hhY2hhMjAtaWV0Zi1wb2x5MTMwNTpmZWZjMDQzOC0yZTEwLTQwZTUtYjExNy02NGMzMjYyMGY5MTY@free.2weradf.xyz:36027#%F0%9F%87%B9%F0%9F%87%BC%E5%8F%B0%E6%B9%BE02%20%7C%20%E4%B8%93%E7%BA%BF
ss://Y2hhY2hhMjAtaWV0Zi1wb2x5MTMwNTpmZWZjMDQzOC0yZTEwLTQwZTUtYjExNy02NGMzMjYyMGY5MTY@free.2weradf.xyz:36016#v2rayng%E6%97%A0%E6%B3%95%E4%BD%BF%E7%94%A8%E7%9A%84%E7%94%A8%E6%88%B7%E8%AF%B7%E4%B8%8B%E8%BD%BDclash%20for%20android
ss://Y2hhY2hhMjAtaWV0Zi1wb2x5MTMwNTpmZWZjMDQzOC0yZTEwLTQwZTUtYjExNy02NGMzMjYyMGY5MTY@free.2weradf.xyz:36030#%F0%9F%87%BA%F0%9F%87%B8%E7%BE%8E%E5%9B%BD%E3%80%90%E7%89%B9%E6%AE%8A%E5%9C%B0%E5%8C%BA%E7%9B%B4%E8%BF%9E%E3%80%91
ss://Y2hhY2hhMjAtaWV0Zi1wb2x5MTMwNTpmZWZjMDQzOC0yZTEwLTQwZTUtYjExNy02NGMzMjYyMGY5MTY@free.2weradf.xyz:36040#%F0%9F%87%B0%F0%9F%87%B7%E9%9F%A9%E5%9B%BD01
ss://Y2hhY2hhMjAtaWV0Zi1wb2x5MTMwNTpmZWZjMDQzOC0yZTEwLTQwZTUtYjExNy02NGMzMjYyMGY5MTY@free.2weradf.xyz:36048#%F0%9F%87%A6%F0%9F%87%BA%E6%BE%B3%E5%A4%A7%E5%88%A9%E4%BA%9A01
ss://Y2hhY2hhMjAtaWV0Zi1wb2x5MTMwNTpmZWZjMDQzOC0yZTEwLTQwZTUtYjExNy02NGMzMjYyMGY5MTY@free.2weradf.xyz:36062#%F0%9F%87%BA%F0%9F%87%A6%E4%B9%8C%E5%85%8B%E5%85%B001
ss://Y2hhY2hhMjAtaWV0Zi1wb2x5MTMwNTpmZWZjMDQzOC0yZTEwLTQwZTUtYjExNy02NGMzMjYyMGY5MTY@free.2weradf.xyz:36020#%F0%9F%87%B8%F0%9F%87%AC%E6%96%B0%E5%8A%A0%E5%9D%A101%20%7C%20%E4%B8%93%E7%BA%BF
ss://Y2hhY2hhMjAtaWV0Zi1wb2x5MTMwNTpmZWZjMDQzOC0yZTEwLTQwZTUtYjExNy02NGMzMjYyMGY5MTY@free.2weradf.xyz:36030#%F0%9F%87%BA%F0%9F%87%B8%E7%BE%8E%E5%9B%BD01%20%7C%20%E4%B8%93%E7%BA%BF
ss://Y2hhY2hhMjAtaWV0Zi1wb2x5MTMwNTpmZWZjMDQzOC0yZTEwLTQwZTUtYjExNy02NGMzMjYyMGY5MTY@free.2weradf.xyz:36016#%E6%B0%B8%E4%B9%85%E5%9F%9F%E5%90%8D%E5%8F%91%E5%B8%83%E9%A1%B5%EF%BC%9Aabpubs.xyz
ss://Y2hhY2hhMjAtaWV0Zi1wb2x5MTMwNTpmZWZjMDQzOC0yZTEwLTQwZTUtYjExNy02NGMzMjYyMGY5MTY@free.2weradf.xyz:36010#%F0%9F%87%AF%F0%9F%87%B5%E6%97%A5%E6%9C%AC01%20%7C%20%E4%B8%93%E7%BA%BF
ss://Y2hhY2hhMjAtaWV0Zi1wb2x5MTMwNTpmZWZjMDQzOC0yZTEwLTQwZTUtYjExNy02NGMzMjYyMGY5MTY@free.2weradf.xyz:36016#%E5%A5%97%E9%A4%90%E5%88%B0%E6%9C%9F%EF%BC%9A%E9%95%BF%E6%9C%9F%E6%9C%89%E6%95%88
ss://Y2hhY2hhMjAtaWV0Zi1wb2x5MTMwNTpmZWZjMDQzOC0yZTEwLTQwZTUtYjExNy02NGMzMjYyMGY5MTY@free.2weradf.xyz:36068#%F0%9F%87%AA%F0%9F%87%B8%E8%A5%BF%E7%8F%AD%E7%89%9901
ss://Y2hhY2hhMjAtaWV0Zi1wb2x5MTMwNTpmZWZjMDQzOC0yZTEwLTQwZTUtYjExNy02NGMzMjYyMGY5MTY@free.2weradf.xyz:36010#%F0%9F%87%AF%F0%9F%87%B5%E6%97%A5%E6%9C%AC%E3%80%90%E7%89%B9%E6%AE%8A%E5%9C%B0%E5%8C%BA%E7%9B%B4%E8%BF%9E%E3%80%91
ss://Y2hhY2hhMjAtaWV0Zi1wb2x5MTMwNTpmZWZjMDQzOC0yZTEwLTQwZTUtYjExNy02NGMzMjYyMGY5MTY@free.2weradf.xyz:36054#%F0%9F%87%A9%F0%9F%87%AA%E5%BE%B7%E5%9B%BD01
ss://Y2hhY2hhMjAtaWV0Zi1wb2x5MTMwNTpmZWZjMDQzOC0yZTEwLTQwZTUtYjExNy02NGMzMjYyMGY5MTY@free.2weradf.xyz:36016#%E5%89%A9%E4%BD%99%E6%B5%81%E9%87%8F%EF%BC%9A10%20GB
ss://Y2hhY2hhMjAtaWV0Zi1wb2x5MTMwNTpmZWZjMDQzOC0yZTEwLTQwZTUtYjExNy02NGMzMjYyMGY5MTY@free.2weradf.xyz:36052#%F0%9F%87%AC%F0%9F%87%A7%E8%8B%B1%E5%9B%BD01
ss://Y2hhY2hhMjAtaWV0Zi1wb2x5MTMwNTpmZWZjMDQzOC0yZTEwLTQwZTUtYjExNy02NGMzMjYyMGY5MTY@free.2weradf.xyz:36022#%F0%9F%87%B8%F0%9F%87%AC%E6%96%B0%E5%8A%A0%E5%9D%A103%20%7C%20%E4%B8%93%E7%BA%BF
ss://Y2hhY2hhMjAtaWV0Zi1wb2x5MTMwNTpmZWZjMDQzOC0yZTEwLTQwZTUtYjExNy02NGMzMjYyMGY5MTY@free.2weradf.xyz:36046#%F0%9F%87%AE%F0%9F%87%B3%E5%8D%B0%E5%BA%A601
ss://Y2hhY2hhMjAtaWV0Zi1wb2x5MTMwNTpmZWZjMDQzOC0yZTEwLTQwZTUtYjExNy02NGMzMjYyMGY5MTY@free.2weradf.xyz:36032#%F0%9F%87%BA%F0%9F%87%B8%E7%BE%8E%E5%9B%BD03%20%7C%20%E4%B8%93%E7%BA%BF
ss://Y2hhY2hhMjAtaWV0Zi1wb2x5MTMwNTpmZWZjMDQzOC0yZTEwLTQwZTUtYjExNy02NGMzMjYyMGY5MTY@free.2weradf.xyz:36060#%F0%9F%87%B9%F0%9F%87%B7%E5%9C%9F%E8%80%B3%E5%85%B601
ss://Y2hhY2hhMjAtaWV0Zi1wb2x5MTMwNTpmZWZjMDQzOC0yZTEwLTQwZTUtYjExNy02NGMzMjYyMGY5MTY@free.2weradf.xyz:36016#%F0%9F%87%AD%F0%9F%87%B0%E9%A6%99%E6%B8%AF01%20%7C%20%E4%B8%93%E7%BA%BF
ss://Y2hhY2hhMjAtaWV0Zi1wb2x5MTMwNTpmZWZjMDQzOC0yZTEwLTQwZTUtYjExNy02NGMzMjYyMGY5MTY@free.2weradf.xyz:36066#%F0%9F%87%A7%F0%9F%87%B7%E5%B7%B4%E8%A5%BF01
ss://Y2hhY2hhMjAtaWV0Zi1wb2x5MTMwNTpmZWZjMDQzOC0yZTEwLTQwZTUtYjExNy02NGMzMjYyMGY5MTY@free.2weradf.xyz:36070#%F0%9F%87%B2%F0%9F%87%BE%E9%A9%AC%E6%9D%A5%E8%A5%BF%E4%BA%9A01
ss://Y2hhY2hhMjAtaWV0Zi1wb2x5MTMwNTpmZWZjMDQzOC0yZTEwLTQwZTUtYjExNy02NGMzMjYyMGY5MTY@free.2weradf.xyz:36020#%F0%9F%87%B8%F0%9F%87%AC%E6%96%B0%E5%8A%A0%E5%9D%A1%E3%80%90%E7%89%B9%E6%AE%8A%E5%9C%B0%E5%8C%BA%E7%9B%B4%E8%BF%9E%E3%80%91
ss://Y2hhY2hhMjAtaWV0Zi1wb2x5MTMwNTpmZWZjMDQzOC0yZTEwLTQwZTUtYjExNy02NGMzMjYyMGY5MTY@free.2weradf.xyz:36058#%F0%9F%87%A6%F0%9F%87%B7%E9%98%BF%E6%A0%B9%E5%BB%B701
ss://Y2hhY2hhMjAtaWV0Zi1wb2x5MTMwNTpmZWZjMDQzOC0yZTEwLTQwZTUtYjExNy02NGMzMjYyMGY5MTY@free.2weradf.xyz:36072#%F0%9F%87%B9%F0%9F%87%AD%E6%B3%B0%E5%9B%BD01
ss://Y2hhY2hhMjAtaWV0Zi1wb2x5MTMwNTpmZWZjMDQzOC0yZTEwLTQwZTUtYjExNy02NGMzMjYyMGY5MTY@free.2weradf.xyz:36056#%F0%9F%87%B7%F0%9F%87%BA%E4%BF%84%E7%BD%97%E6%96%AF01